440000,NG-AB,Test area
100000,NG-LA,Generated
101000,NG-LA,Generated
102000,NG-LA,Generated
103000,NG-LA,Generated
104000,NG-LA,Generated
105000,NG-LA,Generated
106000,NG,Generated
107000,NG,Generated
108000,NG,Generated
109000,NG,Generated
110000,NG-OG,Generated
111000,NG-OG,Generated
112000,NG-OG,Generated
113000,NG,Generated
114000,NG,Generated
115000,NG,Generated
116000,NG,Generated
117000,NG,Generated
118000,NG,Generated
119000,NG,Generated
120000,NG-OG,Generated
121000,NG-OG,Generated
122000,NG-OG,Generated
123000,NG,Generated
124000,NG,Generated
125000,NG,Generated
126000,NG,Generated
127000,NG,Generated
128000,NG,Generated
129000,NG,Generated
130000,NG,Generated
131000,NG,Generated
132000,NG,Generated
133000,NG,Generated
134000,NG,Generated
135000,NG,Generated
136000,NG,Generated
137000,NG,Generated
138000,NG,Generated
139000,NG,Generated
140000,NG,Generated
141000,NG,Generated
142000,NG,Generated
143000,NG,Generated
144000,NG,Generated
145000,NG,Generated
146000,NG,Generated
147000,NG,Generated
148000,NG,Generated
149000,NG,Generated
150000,NG,Generated
151000,NG,Generated
152000,NG,Generated
153000,NG,Generated
154000,NG,Generated
155000,NG,Generated
156000,NG,Generated
157000,NG,Generated
158000,NG,Generated
159000,NG,Generated
160000,NG,Generated
161000,NG,Generated
162000,NG,Generated
163000,NG,Generated
164000,NG,Generated
165000,NG,Generated
166000,NG,Generated
167000,NG,Generated
168000,NG,Generated
169000,NG,Generated
170000,NG,Generated
171000,NG,Generated
172000,NG,Generated
173000,NG,Generated
174000,NG,Generated
175000,NG,Generated
176000,NG,Generated
177000,NG,Generated
178000,NG,Generated
179000,NG,Generated
180000,NG,Generated
181000,NG,Generated
182000,NG,Generated
183000,NG,Generated
184000,NG,Generated
185000,NG,Generated
186000,NG,Generated
187000,NG,Generated
188000,NG,Generated
189000,NG,Generated
190000,NG,Generated
191000,NG,Generated
192000,NG,Generated
193000,NG,Generated
194000,NG,Generated
195000,NG,Generated
196000,NG,Generated
197000,NG,Generated
198000,NG,Generated
199000,NG,Generated
200000,NG-OY,Generated
201000,NG-OY,Generated
202000,NG-OY,Generated
203000,NG-OY,Generated
204000,NG,Generated
205000,NG,Generated
206000,NG,Generated
207000,NG,Generated
208000,NG,Generated
209000,NG,Generated
210000,NG-OY,Generated
211000,NG-OY,Generated
212000,NG-OY,Generated
213000,NG,Generated
214000,NG,Generated
215000,NG,Generated
216000,NG,Generated
217000,NG,Generated
218000,NG,Generated
219000,NG,Generated
220000,NG-OS,Generated
221000,NG-OS,Generated
222000,NG,Generated
223000,NG,Generated
224000,NG,Generated
225000,NG,Generated
226000,NG,Generated
227000,NG,Generated
228000,NG,Generated
229000,NG,Generated
230000,NG-OS,Generated
231000,NG-OS,Generated
232000,NG-OS,Generated
233000,NG-OS,Generated
234000,NG,Generated
235000,NG,Generated
236000,NG,Generated
237000,NG,Generated
238000,NG,Generated
239000,NG,Generated
240000,NG-KW,Generated
241000,NG-KW,Generated
242000,NG-KW,Generated
243000,NG-KW,Generated
244000,NG,Generated
245000,NG,Generated
246000,NG,Generated
247000,NG,Generated
248000,NG,Generated
249000,NG,Generated
250000,NG,Generated
251000,NG-KW,Generated
252000,NG-KW,Generated
253000,NG,Generated
254000,NG,Generated
255000,NG,Generated
256000,NG,Generated
257000,NG,Generated
258000,NG,Generated
259000,NG,Generated
260000,NG-KO,Generated
261000,NG-KO,Generated
262000,NG-KO,Generated
263000,NG-KO,Generated
264000,NG-KO,Generated
265000,NG,Generated
266000,NG,Generated
267000,NG,Generated
268000,NG,Generated
269000,NG,Generated
270000,NG-KO,Generated
271000,NG-KO,Generated
272000,NG-KO,Generated
273000,NG,Generated
274000,NG,Generated
275000,NG,Generated
276000,NG,Generated
277000,NG,Generated
278000,NG,Generated
279000,NG,Generated
280000,NG,Generated
281000,NG,Generated
282000,NG,Generated
283000,NG,Generated
284000,NG,Generated
285000,NG,Generated
286000,NG,Generated
287000,NG,Generated
288000,NG,Generated
289000,NG,Generated
290000,NG,Generated
291000,NG,Generated
292000,NG,Generated
293000,NG,Generated
294000,NG,Generated
295000,NG,Generated
296000,NG,Generated
297000,NG,Generated
298000,NG,Generated
299000,NG,Generated
300000,NG-ED,Generated
301000,NG-ED,Generated
302000,NG-ED,Generated
303000,NG,Generated
304000,NG,Generated
305000,NG,Generated
306000,NG,Generated
307000,NG,Generated
308000,NG,Generated
309000,NG,Generated
310000,NG-ED,Generated
311000,NG-ED,Generated
312000,NG-ED,Generated
313000,NG-ED,Generated
314000,NG,Generated
315000,NG,Generated
316000,NG,Generated
317000,NG,Generated
318000,NG,Generated
319000,NG,Generated
320000,NG-DE,Generated
321000,NG-DE,Generated
322000,NG-DE,Generated
323000,NG,Generated
324000,NG,Generated
325000,NG,Generated
326000,NG,Generated
327000,NG,Generated
328000,NG,Generated
329000,NG,Generated
330000,NG-DE,Generated
331000,NG-DE,Generated
332000,NG,Generated
333000,NG-DE,Generated
334000,NG-DE,Generated
335000,NG,Generated
336000,NG,Generated
337000,NG,Generated
338000,NG,Generated
339000,NG,Generated
340000,NG-ON,Generated
341000,NG-ON,Generated
342000,NG-ON,Generated
343000,NG,Generated
344000,NG,Generated
345000,NG,Generated
346000,NG,Generated
347000,NG,Generated
348000,NG,Generated
349000,NG,Generated
350000,NG-ON,Generated
351000,NG-ON,Generated
352000,NG-ON,Generated
353000,NG,Generated
354000,NG,Generated
355000,NG,Generated
356000,NG,Generated
357000,NG,Generated
358000,NG,Generated
359000,NG,Generated
360000,NG-EK,Generated
361000,NG-EK,Generated
362000,NG-EK,Generated
363000,NG,Generated
364000,NG,Generated
365000,NG,Generated
366000,NG,Generated
367000,NG,Generated
368000,NG,Generated
369000,NG,Generated
370000,NG-EK,Generated
371000,NG-EK,Generated
372000,NG-EK,Generated
373000,NG,Generated
374000,NG,Generated
375000,NG,Generated
376000,NG,Generated
377000,NG,Generated
378000,NG,Generated
379000,NG,Generated
380000,NG,Generated
381000,NG,Generated
382000,NG,Generated
383000,NG,Generated
384000,NG,Generated
385000,NG,Generated
386000,NG,Generated
387000,NG,Generated
388000,NG,Generated
389000,NG,Generated
390000,NG,Generated
391000,NG,Generated
392000,NG,Generated
393000,NG,Generated
394000,NG,Generated
395000,NG,Generated
396000,NG,Generated
397000,NG,Generated
398000,NG,Generated
399000,NG,Generated
400000,NG-EN,Generated
401000,NG-EN,Generated
402000,NG-EN,Generated
403000,NG,Generated
404000,NG,Generated
405000,NG,Generated
406000,NG,Generated
407000,NG,Generated
408000,NG,Generated
409000,NG,Generated
410000,NG-EN,Generated
411000,NG-EN,Generated
412000,NG-EN,Generated
413000,NG-EN,Generated
414000,NG,Generated
415000,NG,Generated
416000,NG,Generated
417000,NG,Generated
418000,NG,Generated
419000,NG,Generated
420000,NG-AN,Generated
421000,NG-AN,Generated
422000,NG-AN,Generated
423000,NG-AN,Generated
424000,NG,Generated
425000,NG,Generated
426000,NG,Generated
427000,NG,Generated
428000,NG,Generated
429000,NG,Generated
430000,NG-AN,Generated
431000,NG-AN,Generated
432000,NG-AN,Generated
433000,NG-AN,Generated
434000,NG-AN,Generated
435000,NG-AN,Generated
436000,NG,Generated
437000,NG,Generated
438000,NG,Generated
439000,NG,Generated
440000,NG-AB,Generated
441000,NG-AB,Generated
442000,NG-AB,Generated
443000,NG,Generated
444000,NG,Generated
445000,NG,Generated
446000,NG,Generated
447000,NG,Generated
448000,NG,Generated
449000,NG,Generated
450000,NG,Generated
451000,NG-AB,Generated
452000,NG-AB,Generated
453000,NG-AB,Generated
454000,NG,Generated
455000,NG,Generated
456000,NG,Generated
457000,NG,Generated
458000,NG,Generated
459000,NG,Generated
460000,NG-IM,Generated
461000,NG-IM,Generated
462000,NG-IM,Generated
463000,NG-IM,Generated
464000,NG-IM,Generated
465000,NG,Generated
466000,NG,Generated
467000,NG,Generated
468000,NG,Generated
469000,NG,Generated
470000,NG-IM,Generated
471000,NG-IM,Generated
472000,NG-IM,Generated
473000,NG-IM,Generated
474000,NG-IM,Generated
475000,NG-IM,Generated
476000,NG,Generated
477000,NG,Generated
478000,NG,Generated
479000,NG,Generated
480000,NG-EB,Generated
481000,NG-EB,Generated
482000,NG-EB,Generated
483000,NG,Generated
484000,NG,Generated
485000,NG,Generated
486000,NG,Generated
487000,NG,Generated
488000,NG,Generated
489000,NG,Generated
490000,NG-EB,Generated
491000,NG-EB,Generated
492000,NG,Generated
493000,NG,Generated
494000,NG,Generated
495000,NG,Generated
496000,NG,Generated
497000,NG,Generated
498000,NG,Generated
499000,NG,Generated
500000,NG-RI,Generated
501000,NG-RI,Generated
502000,NG-RI,Generated
503000,NG-RI,Generated
504000,NG-RI,Generated
505000,NG,Generated
506000,NG,Generated
507000,NG,Generated
508000,NG,Generated
509000,NG,Generated
510000,NG-RI,Generated
511000,NG-RI,Generated
512000,NG-RI,Generated
513000,NG,Generated
514000,NG,Generated
515000,NG,Generated
516000,NG,Generated
517000,NG,Generated
518000,NG,Generated
519000,NG,Generated
520000,NG-AK,Generated
521000,NG-AK,Generated
522000,NG-AK,Generated
523000,NG-AK,Generated
524000,NG-AK,Generated
525000,NG,Generated
526000,NG,Generated
527000,NG,Generated
528000,NG,Generated
529000,NG,Generated
530000,NG-AK,Generated
531000,NG-AK,Generated
532000,NG-AK,Generated
533000,NG-AK,Generated
534000,NG-AK,Generated
535000,NG,Generated
536000,NG,Generated
537000,NG,Generated
538000,NG,Generated
539000,NG,Generated
540000,NG-CR,Generated
541000,NG-CR,Generated
542000,NG-CR,Generated
543000,NG-CR,Generated
544000,NG,Generated
545000,NG,Generated
546000,NG,Generated
547000,NG,Generated
548000,NG,Generated
549000,NG,Generated
550000,NG-CR,Generated
551000,NG-CR,Generated
552000,NG-CR,Generated
553000,NG,Generated
554000,NG,Generated
555000,NG,Generated
556000,NG,Generated
557000,NG,Generated
558000,NG,Generated
559000,NG,Generated
560000,NG-BY,Generated
561000,NG-BY,Generated
562000,NG-BY,Generated
563000,NG,Generated
564000,NG,Generated
565000,NG,Generated
566000,NG,Generated
567000,NG,Generated
568000,NG,Generated
569000,NG,Generated
570000,NG,Generated
571000,NG,Generated
572000,NG,Generated
573000,NG,Generated
574000,NG,Generated
575000,NG,Generated
576000,NG,Generated
577000,NG,Generated
578000,NG,Generated
579000,NG,Generated
580000,NG,Generated
581000,NG,Generated
582000,NG,Generated
583000,NG,Generated
584000,NG,Generated
585000,NG,Generated
586000,NG,Generated
587000,NG,Generated
588000,NG,Generated
589000,NG,Generated
590000,NG,Generated
591000,NG,Generated
592000,NG,Generated
593000,NG,Generated
594000,NG,Generated
595000,NG,Generated
596000,NG,Generated
597000,NG,Generated
598000,NG,Generated
599000,NG,Generated
600000,NG-BO,Generated
601000,NG-BO,Generated
602000,NG-BO,Generated
603000,NG-BO,Generated
604000,NG,Generated
605000,NG,Generated
606000,NG,Generated
607000,NG,Generated
608000,NG,Generated
609000,NG,Generated
610000,NG-BO,Generated
611000,NG-BO,Generated
612000,NG-BO,Generated
613000,NG,Generated
614000,NG,Generated
615000,NG,Generated
616000,NG,Generated
617000,NG,Generated
618000,NG,Generated
619000,NG,Generated
620000,NG-YO,Generated
621000,NG-YO,Generated
622000,NG-YO,Generated
623000,NG,Generated
624000,NG,Generated
625000,NG,Generated
626000,NG,Generated
627000,NG,Generated
628000,NG,Generated
629000,NG,Generated
630000,NG-YO,Generated
631000,NG-YO,Generated
632000,NG-YO,Generated
633000,NG,Generated
634000,NG,Generated
635000,NG,Generated
636000,NG,Generated
637000,NG,Generated
638000,NG,Generated
639000,NG,Generated
640000,NG-AD,Generated
641000,NG-AD,Generated
642000,NG-AD,Generated
643000,NG-AD,Generated
644000,NG,Generated
645000,NG,Generated
646000,NG,Generated
647000,NG,Generated
648000,NG,Generated
649000,NG,Generated
650000,NG-AD,Generated
651000,NG-AD,Generated
652000,NG-AD,Generated
653000,NG,Generated
654000,NG,Generated
655000,NG,Generated
656000,NG,Generated
657000,NG,Generated
658000,NG,Generated
659000,NG,Generated
660000,NG-TA,Generated
661000,NG-TA,Generated
662000,NG-TA,Generated
663000,NG-TA,Generated
664000,NG,Generated
665000,NG,Generated
666000,NG,Generated
667000,NG,Generated
668000,NG,Generated
669000,NG,Generated
670000,NG-TA,Generated
671000,NG-TA,Generated
672000,NG-TA,Generated
673000,NG,Generated
674000,NG,Generated
675000,NG,Generated
676000,NG,Generated
677000,NG,Generated
678000,NG,Generated
679000,NG,Generated
680000,NG,Generated
681000,NG,Generated
682000,NG,Generated
683000,NG,Generated
684000,NG,Generated
685000,NG,Generated
686000,NG,Generated
687000,NG,Generated
688000,NG,Generated
689000,NG,Generated
690000,NG,Generated
691000,NG,Generated
692000,NG,Generated
693000,NG,Generated
694000,NG,Generated
695000,NG,Generated
696000,NG,Generated
697000,NG,Generated
698000,NG,Generated
699000,NG,Generated
700000,NG,Generated
701000,NG-KN,Generated
702000,NG-KN,Generated
703000,NG-KN,Generated
704000,NG-KN,Generated
705000,NG-JI,Generated
706000,NG,Generated
707000,NG,Generated
708000,NG,Generated
709000,NG,Generated
710000,NG-KN,Generated
711000,NG-KN,Generated
712000,NG-KN,Generated
713000,NG-KN,Generated
714000,NG,Generated
715000,NG,Generated
716000,NG,Generated
717000,NG,Generated
718000,NG,Generated
719000,NG,Generated
720000,NG-JI,Generated
721000,NG-JI,Generated
722000,NG,Generated
723000,NG,Generated
724000,NG,Generated
725000,NG,Generated
726000,NG,Generated
727000,NG,Generated
728000,NG,Generated
729000,NG,Generated
730000,NG-JI,Generated
731000,NG-JI,Generated
732000,NG-JI,Generated
733000,NG-JI,Generated
734000,NG,Generated
735000,NG,Generated
736000,NG,Generated
737000,NG,Generated
738000,NG,Generated
739000,NG,Generated
740000,NG-BA,Generated
741000,NG-BA,Generated
742000,NG-BA,Generated
743000,NG-BA,Generated
744000,NG,Generated
745000,NG,Generated
746000,NG,Generated
747000,NG,Generated
748000,NG,Generated
749000,NG,Generated
750000,NG-BA,Generated
751000,NG-BA,Generated
752000,NG-BA,Generated
753000,NG,Generated
754000,NG,Generated
755000,NG,Generated
756000,NG,Generated
757000,NG,Generated
758000,NG,Generated
759000,NG,Generated
760000,NG-GO,Generated
761000,NG-GO,Generated
762000,NG-GO,Generated
763000,NG,Generated
764000,NG,Generated
765000,NG,Generated
766000,NG,Generated
767000,NG,Generated
768000,NG,Generated
769000,NG,Generated
770000,NG-GO,Generated
771000,NG-GO,Generated
772000,NG,Generated
773000,NG,Generated
774000,NG,Generated
775000,NG,Generated
776000,NG,Generated
777000,NG,Generated
778000,NG,Generated
779000,NG,Generated
780000,NG,Generated
781000,NG,Generated
782000,NG,Generated
783000,NG,Generated
784000,NG,Generated
785000,NG,Generated
786000,NG,Generated
787000,NG,Generated
788000,NG,Generated
789000,NG,Generated
790000,NG,Generated
791000,NG,Generated
792000,NG,Generated
793000,NG,Generated
794000,NG,Generated
795000,NG,Generated
796000,NG,Generated
797000,NG,Generated
798000,NG,Generated
799000,NG,Generated
800000,NG-KD,Generated
801000,NG-KD,Generated
802000,NG-KD,Generated
803000,NG,Generated
804000,NG,Generated
805000,NG,Generated
806000,NG,Generated
807000,NG,Generated
808000,NG,Generated
809000,NG,Generated
810000,NG-KD,Generated
811000,NG-KD,Generated
812000,NG-KD,Generated
813000,NG,Generated
814000,NG,Generated
815000,NG,Generated
816000,NG,Generated
817000,NG,Generated
818000,NG,Generated
819000,NG,Generated
820000,NG-KT,Generated
821000,NG-KT,Generated
822000,NG-KT,Generated
823000,NG-KT,Generated
824000,NG-KT,Generated
825000,NG,Generated
826000,NG,Generated
827000,NG,Generated
828000,NG,Generated
829000,NG,Generated
830000,NG-KT,Generated
831000,NG-KT,Generated
832000,NG-KT,Generated
833000,NG-KT,Generated
834000,NG,Generated
835000,NG,Generated
836000,NG,Generated
837000,NG,Generated
838000,NG,Generated
839000,NG,Generated
840000,NG-SO,Generated
841000,NG-SO,Generated
842000,NG-SO,Generated
843000,NG-SO,Generated
844000,NG,Generated
845000,NG,Generated
846000,NG,Generated
847000,NG,Generated
848000,NG,Generated
849000,NG,Generated
850000,NG-SO,Generated
851000,NG-SO,Generated
852000,NG-SO,Generated
853000,NG-SO,Generated
854000,NG,Generated
855000,NG,Generated
856000,NG,Generated
857000,NG,Generated
858000,NG,Generated
859000,NG,Generated
860000,NG-KE,Generated
861000,NG-KE,Generated
862000,NG-KE,Generated
863000,NG-KE,Generated
864000,NG,Generated
865000,NG,Generated
866000,NG,Generated
867000,NG,Generated
868000,NG,Generated
869000,NG,Generated
870000,NG-KE,Generated
871000,NG-KE,Generated
872000,NG-KE,Generated
873000,NG,Generated
874000,NG,Generated
875000,NG,Generated
876000,NG,Generated
877000,NG,Generated
878000,NG,Generated
879000,NG,Generated
880000,NG-ZA,Generated
881000,NG-ZA,Generated
882000,NG-ZA,Generated
883000,NG-ZA,Generated
884000,NG,Generated
885000,NG,Generated
886000,NG,Generated
887000,NG,Generated
888000,NG,Generated
889000,NG,Generated
890000,NG-ZA,Generated
891000,NG-ZA,Generated
892000,NG,Generated
893000,NG,Generated
894000,NG,Generated
895000,NG,Generated
896000,NG,Generated
897000,NG,Generated
898000,NG,Generated
899000,NG,Generated
900000,NG-FC,Generated
901000,NG-FC,Generated
902000,NG-FC,Generated
903000,NG-FC,Generated
904000,NG-FC,Generated
905000,NG-FC,Generated
906000,NG,Generated
907000,NG,Generated
908000,NG,Generated
909000,NG,Generated
910000,NG-NI,Generated
911000,NG-NI,Generated
912000,NG-NI,Generated
913000,NG-NI,Generated
914000,NG,Generated
915000,NG,Generated
916000,NG,Generated
917000,NG,Generated
918000,NG,Generated
919000,NG,Generated
920000,NG-NI,Generated
921000,NG-NI,Generated
922000,NG-NI,Generated
923000,NG-NI,Generated
924000,NG,Generated
925000,NG,Generated
926000,NG,Generated
927000,NG,Generated
928000,NG,Generated
929000,NG,Generated
930000,NG-PL,Generated
931000,NG-PL,Generated
932000,NG-PL,Generated
933000,NG-PL,Generated
934000,NG,Generated
935000,NG,Generated
936000,NG,Generated
937000,NG,Generated
938000,NG,Generated
939000,NG,Generated
940000,NG-PL,Generated
941000,NG-PL,Generated
942000,NG-PL,Generated
943000,NG,Generated
944000,NG,Generated
945000,NG,Generated
946000,NG,Generated
947000,NG,Generated
948000,NG,Generated
949000,NG,Generated
950000,NG-NA,Generated
951000,NG-NA,Generated
952000,NG,Generated
953000,NG,Generated
954000,NG,Generated
955000,NG,Generated
956000,NG,Generated
957000,NG,Generated
958000,NG,Generated
959000,NG,Generated
960000,NG-NA,Generated
961000,NG-NA,Generated
962000,NG-NA,Generated
963000,NG,Generated
964000,NG,Generated
965000,NG,Generated
966000,NG,Generated
967000,NG,Generated
968000,NG,Generated
969000,NG,Generated
970000,NG-BE,Generated
971000,NG-BE,Generated
972000,NG-BE,Generated
973000,NG-BE,Generated
974000,NG,Generated
975000,NG,Generated
976000,NG,Generated
977000,NG,Generated
978000,NG,Generated
979000,NG,Generated
980000,NG-BE,Generated
981000,NG-BE,Generated
982000,NG-BE,Generated
983000,NG,Generated
984000,NG,Generated
985000,NG,Generated
986000,NG,Generated
987000,NG,Generated
988000,NG,Generated
989000,NG,Generated
990000,NG,Generated
991000,NG,Generated
992000,NG,Generated
993000,NG,Generated
994000,NG,Generated
995000,NG,Generated
996000,NG,Generated
997000,NG,Generated
998000,NG,Generated
