02115,US-MA,US,Boston
10001,US-NY,US,New York
00501,US-NY,US,New York (Internal Revenue Service)
00601,PR,PR,Puerto Rico
01001,US-MA,US,Agawam Massachusetts
19103,US-PA,US,Philadelphia
20008,US-DC,US,Washington DC
30303,US-GA,US,Atlanta
33130,US-FL,US,Miami
40202,US-KY,US,Louisville
50309,US-IA,US,Des Moines
60601,US-IL,US,Chicago
77063,US-TX,US,Houston
80202,US-CO,US,Denver
94111,US-CA,US,San Francisco
98101,US-WA,US,Seattle
99950,US-AK,US,Ketchikan Alaska
98790,US,US,Unallocated
# And now generated ones
00000,US,US,Generated
00100,US,US,Generated
00200,US,US,Generated
00300,US,US,Generated
00400,US,US,Generated
00500,US-NY,US,Generated
00600,PR,PR,Generated
00700,PR,PR,Generated
00800,US-VI,US,Generated
00900,PR,PR,Generated
01000,US-MA,US,Generated
01100,US-MA,US,Generated
01200,US-MA,US,Generated
01300,US-MA,US,Generated
01400,US-MA,US,Generated
01500,US-MA,US,Generated
01600,US-MA,US,Generated
01700,US-MA,US,Generated
01800,US-MA,US,Generated
01900,US-MA,US,Generated
02000,US-MA,US,Generated
02100,US-MA,US,Generated
02200,US-MA,US,Generated
02300,US-MA,US,Generated
02400,US-MA,US,Generated
02500,US-MA,US,Generated
02600,US-MA,US,Generated
02700,US-MA,US,Generated
02800,US-RI,US,Generated
02900,US-RI,US,Generated
03000,US-NH,US,Generated
03100,US-NH,US,Generated
03200,US-NH,US,Generated
03300,US-NH,US,Generated
03400,US-NH,US,Generated
03500,US-NH,US,Generated
03600,US-NH,US,Generated
03700,US-NH,US,Generated
03800,US-NH,US,Generated
03900,US-ME,US,Generated
04000,US-ME,US,Generated
04100,US-ME,US,Generated
04200,US-ME,US,Generated
04300,US-ME,US,Generated
04400,US-ME,US,Generated
04500,US-ME,US,Generated
04600,US-ME,US,Generated
04700,US-ME,US,Generated
04800,US-ME,US,Generated
04900,US-ME,US,Generated
05000,US-VT,US,Generated
05100,US-VT,US,Generated
05200,US-VT,US,Generated
05300,US-VT,US,Generated
05400,US-VT,US,Generated
05500,US-MA,US,Generated
05600,US-VT,US,Generated
05700,US-VT,US,Generated
05800,US-VT,US,Generated
05900,US-VT,US,Generated
06000,US-CT,US,Generated
06100,US-CT,US,Generated
06200,US-CT,US,Generated
06300,US-CT,US,Generated
06400,US-CT,US,Generated
06500,US-CT,US,Generated
06600,US-CT,US,Generated
06700,US-CT,US,Generated
06800,US-CT,US,Generated
06900,US-CT,US,Generated
07000,US-NJ,US,Generated
07100,US-NJ,US,Generated
07200,US-NJ,US,Generated
07300,US-NJ,US,Generated
07400,US-NJ,US,Generated
07500,US-NJ,US,Generated
07600,US-NJ,US,Generated
07700,US-NJ,US,Generated
07800,US-NJ,US,Generated
07900,US-NJ,US,Generated
08000,US-NJ,US,Generated
08100,US-NJ,US,Generated
08200,US-NJ,US,Generated
08300,US-NJ,US,Generated
08400,US-NJ,US,Generated
08500,US-NJ,US,Generated
08600,US-NJ,US,Generated
08700,US-NJ,US,Generated
08800,US-NJ,US,Generated
08900,US-NJ,US,Generated
09000,US-AE,US,Generated
09100,US-AE,US,Generated
09200,US-AE,US,Generated
09300,US-AE,US,Generated
09400,US-AE,US,Generated
09500,US-AE,US,Generated
09600,US-AE,US,Generated
09700,US-AE,US,Generated
09800,US-AE,US,Generated
09900,US,US,Generated
10000,US-NY,US,Generated
10100,US-NY,US,Generated
10200,US-NY,US,Generated
10300,US-NY,US,Generated
10400,US-NY,US,Generated
10500,US-NY,US,Generated
10600,US-NY,US,Generated
10700,US-NY,US,Generated
10800,US-NY,US,Generated
10900,US-NY,US,Generated
11000,US-NY,US,Generated
11100,US-NY,US,Generated
11200,US-NY,US,Generated
11300,US-NY,US,Generated
11400,US-NY,US,Generated
11500,US-NY,US,Generated
11600,US-NY,US,Generated
11700,US-NY,US,Generated
11800,US-NY,US,Generated
11900,US-NY,US,Generated
12000,US-NY,US,Generated
12100,US-NY,US,Generated
12200,US-NY,US,Generated
12300,US-NY,US,Generated
12400,US-NY,US,Generated
12500,US-NY,US,Generated
12600,US-NY,US,Generated
12700,US-NY,US,Generated
12800,US-NY,US,Generated
12900,US-NY,US,Generated
13000,US-NY,US,Generated
13100,US-NY,US,Generated
13200,US-NY,US,Generated
13300,US-NY,US,Generated
13400,US-NY,US,Generated
13500,US-NY,US,Generated
13600,US-NY,US,Generated
13700,US-NY,US,Generated
13800,US-NY,US,Generated
13900,US-NY,US,Generated
14000,US-NY,US,Generated
14100,US-NY,US,Generated
14200,US-NY,US,Generated
14300,US-NY,US,Generated
14400,US-NY,US,Generated
14500,US-NY,US,Generated
14600,US-NY,US,Generated
14700,US-NY,US,Generated
14800,US-NY,US,Generated
14900,US-NY,US,Generated
15000,US-PA,US,Generated
15100,US-PA,US,Generated
15200,US-PA,US,Generated
15300,US-PA,US,Generated
15400,US-PA,US,Generated
15500,US-PA,US,Generated
15600,US-PA,US,Generated
15700,US-PA,US,Generated
15800,US-PA,US,Generated
15900,US-PA,US,Generated
16000,US-PA,US,Generated
16100,US-PA,US,Generated
16200,US-PA,US,Generated
16300,US-PA,US,Generated
16400,US-PA,US,Generated
16500,US-PA,US,Generated
16600,US-PA,US,Generated
16700,US-PA,US,Generated
16800,US-PA,US,Generated
16900,US-PA,US,Generated
17000,US-PA,US,Generated
17100,US-PA,US,Generated
17200,US-PA,US,Generated
17300,US-PA,US,Generated
17400,US-PA,US,Generated
17500,US-PA,US,Generated
17600,US-PA,US,Generated
17700,US-PA,US,Generated
17800,US-PA,US,Generated
17900,US-PA,US,Generated
18000,US-PA,US,Generated
18100,US-PA,US,Generated
18200,US-PA,US,Generated
18300,US-PA,US,Generated
18400,US-PA,US,Generated
18500,US-PA,US,Generated
18600,US-PA,US,Generated
18700,US-PA,US,Generated
18800,US-PA,US,Generated
18900,US-PA,US,Generated
19000,US-PA,US,Generated
19100,US-PA,US,Generated
19200,US-PA,US,Generated
19300,US-PA,US,Generated
19400,US-PA,US,Generated
19500,US-PA,US,Generated
19600,US-PA,US,Generated
19700,US-DE,US,Generated
19800,US-DE,US,Generated
19900,US-DE,US,Generated
20000,US-DC,US,Generated
20100,US-VA,US,Generated
20200,US-DC,US,Generated
20300,US-DC,US,Generated
20400,US-DC,US,Generated
20500,US-DC,US,Generated
20600,US-MD,US,Generated
20700,US-MD,US,Generated
20800,US-MD,US,Generated
20900,US-MD,US,Generated
21000,US-MD,US,Generated
21100,US-MD,US,Generated
21200,US-MD,US,Generated
21300,US,US,Generated
21400,US-MD,US,Generated
21500,US-MD,US,Generated
21600,US-MD,US,Generated
21700,US-MD,US,Generated
21800,US-MD,US,Generated
21900,US-MD,US,Generated
22000,US-VA,US,Generated
22100,US-VA,US,Generated
22200,US-VA,US,Generated
22300,US-VA,US,Generated
22400,US-VA,US,Generated
22500,US-VA,US,Generated
22600,US-VA,US,Generated
22700,US-VA,US,Generated
22800,US-VA,US,Generated
22900,US-VA,US,Generated
23000,US-VA,US,Generated
23100,US-VA,US,Generated
23200,US-VA,US,Generated
23300,US-VA,US,Generated
23400,US-VA,US,Generated
23500,US-VA,US,Generated
23600,US-VA,US,Generated
23700,US-VA,US,Generated
23800,US-VA,US,Generated
23900,US-VA,US,Generated
24000,US-VA,US,Generated
24100,US-VA,US,Generated
24200,US-VA,US,Generated
24300,US-VA,US,Generated
24400,US-VA,US,Generated
24500,US-VA,US,Generated
24600,US-VA,US,Generated
24700,US-WV,US,Generated
24800,US-WV,US,Generated
24900,US-WV,US,Generated
25000,US-WV,US,Generated
25100,US-WV,US,Generated
25200,US-WV,US,Generated
25300,US-WV,US,Generated
25400,US-WV,US,Generated
25500,US-WV,US,Generated
25600,US-WV,US,Generated
25700,US-WV,US,Generated
25800,US-WV,US,Generated
25900,US-WV,US,Generated
26000,US-WV,US,Generated
26100,US-WV,US,Generated
26200,US-WV,US,Generated
26300,US-WV,US,Generated
26400,US-WV,US,Generated
26500,US-WV,US,Generated
26600,US-WV,US,Generated
26700,US-WV,US,Generated
26800,US-WV,US,Generated
26900,US,US,Generated
27000,US-NC,US,Generated
27100,US-NC,US,Generated
27200,US-NC,US,Generated
27300,US-NC,US,Generated
27400,US-NC,US,Generated
27500,US-NC,US,Generated
27600,US-NC,US,Generated
27700,US-NC,US,Generated
27800,US-NC,US,Generated
27900,US-NC,US,Generated
28000,US-NC,US,Generated
28100,US-NC,US,Generated
28200,US-NC,US,Generated
28300,US-NC,US,Generated
28400,US-NC,US,Generated
28500,US-NC,US,Generated
28600,US-NC,US,Generated
28700,US-NC,US,Generated
28800,US-NC,US,Generated
28900,US-NC,US,Generated
29000,US-SC,US,Generated
29100,US-SC,US,Generated
29200,US-SC,US,Generated
29300,US-SC,US,Generated
29400,US-SC,US,Generated
29500,US-SC,US,Generated
29600,US-SC,US,Generated
29700,US-SC,US,Generated
29800,US-SC,US,Generated
29900,US-SC,US,Generated
30000,US-GA,US,Generated
30100,US-GA,US,Generated
30200,US-GA,US,Generated
30300,US-GA,US,Generated
30400,US-GA,US,Generated
30500,US-GA,US,Generated
30600,US-GA,US,Generated
30700,US-GA,US,Generated
30800,US-GA,US,Generated
30900,US-GA,US,Generated
31000,US-GA,US,Generated
31100,US-GA,US,Generated
31200,US-GA,US,Generated
31300,US-GA,US,Generated
31400,US-GA,US,Generated
31500,US-GA,US,Generated
31600,US-GA,US,Generated
31700,US-GA,US,Generated
31800,US-GA,US,Generated
31900,US-GA,US,Generated
32000,US-FL,US,Generated
32100,US-FL,US,Generated
32200,US-FL,US,Generated
32300,US-FL,US,Generated
32400,US-FL,US,Generated
32500,US-FL,US,Generated
32600,US-FL,US,Generated
32700,US-FL,US,Generated
32800,US-FL,US,Generated
32900,US-FL,US,Generated
33000,US-FL,US,Generated
33100,US-FL,US,Generated
33200,US-FL,US,Generated
33300,US-FL,US,Generated
33400,US-FL,US,Generated
33500,US-FL,US,Generated
33600,US-FL,US,Generated
33700,US-FL,US,Generated
33800,US-FL,US,Generated
33900,US-FL,US,Generated
34000,US-AA,US,Generated
34100,US-FL,US,Generated
34200,US-FL,US,Generated
34300,US,US,Generated
34400,US-FL,US,Generated
34500,US,US,Generated
34600,US-FL,US,Generated
34700,US-FL,US,Generated
34800,US,US,Generated
34900,US-FL,US,Generated
35000,US-AL,US,Generated
35100,US-AL,US,Generated
35200,US-AL,US,Generated
35300,US,US,Generated
35400,US-AL,US,Generated
35500,US-AL,US,Generated
35600,US-AL,US,Generated
35700,US-AL,US,Generated
35800,US-AL,US,Generated
35900,US-AL,US,Generated
36000,US-AL,US,Generated
36100,US-AL,US,Generated
36200,US-AL,US,Generated
36300,US-AL,US,Generated
36400,US-AL,US,Generated
36500,US-AL,US,Generated
36600,US-AL,US,Generated
36700,US-AL,US,Generated
36800,US-AL,US,Generated
36900,US-AL,US,Generated
37000,US-TN,US,Generated
37100,US-TN,US,Generated
37200,US-TN,US,Generated
37300,US-TN,US,Generated
37400,US-TN,US,Generated
37500,US-TN,US,Generated
37600,US-TN,US,Generated
37700,US-TN,US,Generated
37800,US-TN,US,Generated
37900,US-TN,US,Generated
38000,US-TN,US,Generated
38100,US-TN,US,Generated
38200,US-TN,US,Generated
38300,US-TN,US,Generated
38400,US-TN,US,Generated
38500,US-TN,US,Generated
38600,US-MS,US,Generated
38700,US-MS,US,Generated
38800,US-MS,US,Generated
38900,US-MS,US,Generated
39000,US-MS,US,Generated
39100,US-MS,US,Generated
39200,US-MS,US,Generated
39300,US-MS,US,Generated
39400,US-MS,US,Generated
39500,US-MS,US,Generated
39600,US-MS,US,Generated
39700,US-MS,US,Generated
39800,US-GA,US,Generated
39900,US-GA,US,Generated
40000,US-KY,US,Generated
40100,US-KY,US,Generated
40200,US-KY,US,Generated
40300,US-KY,US,Generated
40400,US-KY,US,Generated
40500,US-KY,US,Generated
40600,US-KY,US,Generated
40700,US-KY,US,Generated
40800,US-KY,US,Generated
40900,US-KY,US,Generated
41000,US-KY,US,Generated
41100,US-KY,US,Generated
41200,US-KY,US,Generated
41300,US-KY,US,Generated
41400,US-KY,US,Generated
41500,US-KY,US,Generated
41600,US-KY,US,Generated
41700,US-KY,US,Generated
41800,US-KY,US,Generated
41900,US,US,Generated
42000,US-KY,US,Generated
42100,US-KY,US,Generated
42200,US-KY,US,Generated
42300,US-KY,US,Generated
42400,US-KY,US,Generated
42500,US-KY,US,Generated
42600,US-KY,US,Generated
42700,US-KY,US,Generated
42800,US,US,Generated
42900,US,US,Generated
43000,US-OH,US,Generated
43100,US-OH,US,Generated
43200,US-OH,US,Generated
43300,US-OH,US,Generated
43400,US-OH,US,Generated
43500,US-OH,US,Generated
43600,US-OH,US,Generated
43700,US-OH,US,Generated
43800,US-OH,US,Generated
43900,US-OH,US,Generated
44000,US-OH,US,Generated
44100,US-OH,US,Generated
44200,US-OH,US,Generated
44300,US-OH,US,Generated
44400,US-OH,US,Generated
44500,US-OH,US,Generated
44600,US-OH,US,Generated
44700,US-OH,US,Generated
44800,US-OH,US,Generated
44900,US-OH,US,Generated
45000,US-OH,US,Generated
45100,US-OH,US,Generated
45200,US-OH,US,Generated
45300,US-OH,US,Generated
45400,US-OH,US,Generated
45500,US-OH,US,Generated
45600,US-OH,US,Generated
45700,US-OH,US,Generated
45800,US-OH,US,Generated
45900,US-OH,US,Generated
46000,US-IN,US,Generated
46100,US-IN,US,Generated
46200,US-IN,US,Generated
46300,US-IN,US,Generated
46400,US-IN,US,Generated
46500,US-IN,US,Generated
46600,US-IN,US,Generated
46700,US-IN,US,Generated
46800,US-IN,US,Generated
46900,US-IN,US,Generated
47000,US-IN,US,Generated
47100,US-IN,US,Generated
47200,US-IN,US,Generated
47300,US-IN,US,Generated
47400,US-IN,US,Generated
47500,US-IN,US,Generated
47600,US-IN,US,Generated
47700,US-IN,US,Generated
47800,US-IN,US,Generated
47900,US-IN,US,Generated
48000,US-MI,US,Generated
48100,US-MI,US,Generated
48200,US-MI,US,Generated
48300,US-MI,US,Generated
48400,US-MI,US,Generated
48500,US-MI,US,Generated
48600,US-MI,US,Generated
48700,US-MI,US,Generated
48800,US-MI,US,Generated
48900,US-MI,US,Generated
49000,US-MI,US,Generated
49100,US-MI,US,Generated
49200,US-MI,US,Generated
49300,US-MI,US,Generated
49400,US-MI,US,Generated
49500,US-MI,US,Generated
49600,US-MI,US,Generated
49700,US-MI,US,Generated
49800,US-MI,US,Generated
49900,US-MI,US,Generated
50000,US-IA,US,Generated
50100,US-IA,US,Generated
50200,US-IA,US,Generated
50300,US-IA,US,Generated
50400,US-IA,US,Generated
50500,US-IA,US,Generated
50600,US-IA,US,Generated
50700,US-IA,US,Generated
50800,US-IA,US,Generated
50900,US-IA,US,Generated
51000,US-IA,US,Generated
51100,US-IA,US,Generated
51200,US-IA,US,Generated
51300,US-IA,US,Generated
51400,US-IA,US,Generated
51500,US-IA,US,Generated
51600,US-IA,US,Generated
51700,US,US,Generated
51800,US,US,Generated
51900,US,US,Generated
52000,US-IA,US,Generated
52100,US-IA,US,Generated
52200,US-IA,US,Generated
52300,US-IA,US,Generated
52400,US-IA,US,Generated
52500,US-IA,US,Generated
52600,US-IA,US,Generated
52700,US-IA,US,Generated
52800,US-IA,US,Generated
52900,US,US,Generated
53000,US-WI,US,Generated
53100,US-WI,US,Generated
53200,US-WI,US,Generated
53300,US,US,Generated
53400,US-WI,US,Generated
53500,US-WI,US,Generated
53600,US,US,Generated
53700,US-WI,US,Generated
53800,US-WI,US,Generated
53900,US-WI,US,Generated
54000,US-WI,US,Generated
54100,US-WI,US,Generated
54200,US-WI,US,Generated
54300,US-WI,US,Generated
54400,US-WI,US,Generated
54500,US-WI,US,Generated
54600,US-WI,US,Generated
54700,US-WI,US,Generated
54800,US-WI,US,Generated
54900,US-WI,US,Generated
55000,US-MN,US,Generated
55100,US-MN,US,Generated
55200,US,US,Generated
55300,US-MN,US,Generated
55400,US-MN,US,Generated
55500,US-MN,US,Generated
55600,US-MN,US,Generated
55700,US-MN,US,Generated
55800,US-MN,US,Generated
55900,US-MN,US,Generated
56000,US-MN,US,Generated
56100,US-MN,US,Generated
56200,US-MN,US,Generated
56300,US-MN,US,Generated
56400,US-MN,US,Generated
56500,US-MN,US,Generated
56600,US-MN,US,Generated
56700,US-MN,US,Generated
56800,US,US,Generated
56900,US-DC,US,Generated
57000,US-SD,US,Generated
57100,US-SD,US,Generated
57200,US-SD,US,Generated
57300,US-SD,US,Generated
57400,US-SD,US,Generated
57500,US-SD,US,Generated
57600,US-SD,US,Generated
57700,US-SD,US,Generated
57800,US,US,Generated
57900,US,US,Generated
58000,US-ND,US,Generated
58100,US-ND,US,Generated
58200,US-ND,US,Generated
58300,US-ND,US,Generated
58400,US-ND,US,Generated
58500,US-ND,US,Generated
58600,US-ND,US,Generated
58700,US-ND,US,Generated
58800,US-ND,US,Generated
58900,US,US,Generated
59000,US-MT,US,Generated
59100,US-MT,US,Generated
59200,US-MT,US,Generated
59300,US-MT,US,Generated
59400,US-MT,US,Generated
59500,US-MT,US,Generated
59600,US-MT,US,Generated
59700,US-MT,US,Generated
59800,US-MT,US,Generated
59900,US-MT,US,Generated
60000,US-IL,US,Generated
60100,US-IL,US,Generated
60200,US-IL,US,Generated
60300,US-IL,US,Generated
60400,US-IL,US,Generated
60500,US-IL,US,Generated
60600,US-IL,US,Generated
60700,US-IL,US,Generated
60800,US-IL,US,Generated
60900,US-IL,US,Generated
61000,US-IL,US,Generated
61100,US-IL,US,Generated
61200,US-IL,US,Generated
61300,US-IL,US,Generated
61400,US-IL,US,Generated
61500,US-IL,US,Generated
61600,US-IL,US,Generated
61700,US-IL,US,Generated
61800,US-IL,US,Generated
61900,US-IL,US,Generated
62000,US-IL,US,Generated
62100,US,US,Generated
62200,US-IL,US,Generated
62300,US-IL,US,Generated
62400,US-IL,US,Generated
62500,US-IL,US,Generated
62600,US-IL,US,Generated
62700,US-IL,US,Generated
62800,US-IL,US,Generated
62900,US-IL,US,Generated
63000,US-MO,US,Generated
63100,US-MO,US,Generated
63200,US,US,Generated
63300,US-MO,US,Generated
63400,US-MO,US,Generated
63500,US-MO,US,Generated
63600,US-MO,US,Generated
63700,US-MO,US,Generated
63800,US-MO,US,Generated
63900,US-MO,US,Generated
64000,US-MO,US,Generated
64100,US-MO,US,Generated
64200,US,US,Generated
64300,US,US,Generated
64400,US-MO,US,Generated
64500,US-MO,US,Generated
64600,US-MO,US,Generated
64700,US-MO,US,Generated
64800,US-MO,US,Generated
64900,US-MO,US,Generated
65000,US-MO,US,Generated
65100,US-MO,US,Generated
65200,US-MO,US,Generated
65300,US-MO,US,Generated
65400,US-MO,US,Generated
65500,US-MO,US,Generated
65600,US-MO,US,Generated
65700,US-MO,US,Generated
65800,US-MO,US,Generated
65900,US,US,Generated
66000,US-KS,US,Generated
66100,US-KS,US,Generated
66200,US-KS,US,Generated
66300,US,US,Generated
66400,US-KS,US,Generated
66500,US-KS,US,Generated
66600,US-KS,US,Generated
66700,US-KS,US,Generated
66800,US-KS,US,Generated
66900,US-KS,US,Generated
67000,US-KS,US,Generated
67100,US-KS,US,Generated
67200,US-KS,US,Generated
67300,US-KS,US,Generated
67400,US-KS,US,Generated
67500,US-KS,US,Generated
67600,US-KS,US,Generated
67700,US-KS,US,Generated
67800,US-KS,US,Generated
67900,US-KS,US,Generated
68000,US-NE,US,Generated
68100,US-NE,US,Generated
68200,US,US,Generated
68300,US-NE,US,Generated
68400,US-NE,US,Generated
68500,US-NE,US,Generated
68600,US-NE,US,Generated
68700,US-NE,US,Generated
68800,US-NE,US,Generated
68900,US-NE,US,Generated
69000,US-NE,US,Generated
69100,US-NE,US,Generated
69200,US-NE,US,Generated
69300,US-NE,US,Generated
69400,US,US,Generated
69500,US,US,Generated
69600,US,US,Generated
69700,US,US,Generated
69800,US,US,Generated
69900,US,US,Generated
70000,US-LA,US,Generated
70100,US-LA,US,Generated
70200,US,US,Generated
70300,US-LA,US,Generated
70400,US-LA,US,Generated
70500,US-LA,US,Generated
70600,US-LA,US,Generated
70700,US-LA,US,Generated
70800,US-LA,US,Generated
70900,US,US,Generated
71000,US-LA,US,Generated
71100,US-LA,US,Generated
71200,US-LA,US,Generated
71300,US-LA,US,Generated
71400,US-LA,US,Generated
71500,US,US,Generated
71600,US-AR,US,Generated
71700,US-AR,US,Generated
71800,US-AR,US,Generated
71900,US-AR,US,Generated
72000,US-AR,US,Generated
72100,US-AR,US,Generated
72200,US-AR,US,Generated
72300,US-AR,US,Generated
72400,US-AR,US,Generated
72500,US-AR,US,Generated
72600,US-AR,US,Generated
72700,US-AR,US,Generated
72800,US-AR,US,Generated
72900,US-AR,US,Generated
73000,US-OK,US,Generated
73100,US-OK,US,Generated
73200,US,US,Generated
73300,US-TX,US,Generated
73400,US-OK,US,Generated
73500,US-OK,US,Generated
73600,US-OK,US,Generated
73700,US-OK,US,Generated
73800,US-OK,US,Generated
73900,US-OK,US,Generated
74000,US-OK,US,Generated
74100,US-OK,US,Generated
74200,US,US,Generated
74300,US-OK,US,Generated
74400,US-OK,US,Generated
74500,US-OK,US,Generated
74600,US-OK,US,Generated
74700,US-OK,US,Generated
74800,US-OK,US,Generated
74900,US-OK,US,Generated
75000,US-TX,US,Generated
75100,US-TX,US,Generated
75200,US-TX,US,Generated
75300,US-TX,US,Generated
75400,US-TX,US,Generated
75500,US-TX,US,Generated
75600,US-TX,US,Generated
75700,US-TX,US,Generated
75800,US-TX,US,Generated
75900,US-TX,US,Generated
76000,US-TX,US,Generated
76100,US-TX,US,Generated
76200,US-TX,US,Generated
76300,US-TX,US,Generated
76400,US-TX,US,Generated
76500,US-TX,US,Generated
76600,US-TX,US,Generated
76700,US-TX,US,Generated
76800,US-TX,US,Generated
76900,US-TX,US,Generated
77000,US-TX,US,Generated
77100,US,US,Generated
77200,US-TX,US,Generated
77300,US-TX,US,Generated
77400,US-TX,US,Generated
77500,US-TX,US,Generated
77600,US-TX,US,Generated
77700,US-TX,US,Generated
77800,US-TX,US,Generated
77900,US-TX,US,Generated
78000,US-TX,US,Generated
78100,US-TX,US,Generated
78200,US-TX,US,Generated
78300,US-TX,US,Generated
78400,US-TX,US,Generated
78500,US-TX,US,Generated
78600,US-TX,US,Generated
78700,US-TX,US,Generated
78800,US-TX,US,Generated
78900,US-TX,US,Generated
79000,US-TX,US,Generated
79100,US-TX,US,Generated
79200,US-TX,US,Generated
79300,US-TX,US,Generated
79400,US-TX,US,Generated
79500,US-TX,US,Generated
79600,US-TX,US,Generated
79700,US-TX,US,Generated
79800,US-TX,US,Generated
79900,US-TX,US,Generated
80000,US-CO,US,Generated
80100,US-CO,US,Generated
80200,US-CO,US,Generated
80300,US-CO,US,Generated
80400,US-CO,US,Generated
80500,US-CO,US,Generated
80600,US-CO,US,Generated
80700,US-CO,US,Generated
80800,US-CO,US,Generated
80900,US-CO,US,Generated
81000,US-CO,US,Generated
81100,US-CO,US,Generated
81200,US-CO,US,Generated
81300,US-CO,US,Generated
81400,US-CO,US,Generated
81500,US-CO,US,Generated
81600,US-CO,US,Generated
81700,US,US,Generated
81800,US,US,Generated
81900,US,US,Generated
82000,US-WY,US,Generated
82100,US-WY,US,Generated
82200,US-WY,US,Generated
82300,US-WY,US,Generated
82400,US-WY,US,Generated
82500,US-WY,US,Generated
82600,US-WY,US,Generated
82700,US-WY,US,Generated
82800,US-WY,US,Generated
82900,US-WY,US,Generated
83000,US-WY,US,Generated
83100,US-WY,US,Generated
83200,US-ID,US,Generated
83300,US-ID,US,Generated
83400,US-ID,US,Generated
83500,US-ID,US,Generated
83600,US-ID,US,Generated
83700,US-ID,US,Generated
83800,US-ID,US,Generated
83900,US,US,Generated
84000,US-UT,US,Generated
84100,US-UT,US,Generated
84200,US-UT,US,Generated
84300,US-UT,US,Generated
84400,US-UT,US,Generated
84500,US-UT,US,Generated
84600,US-UT,US,Generated
84700,US-UT,US,Generated
84800,US,US,Generated
84900,US,US,Generated
85000,US-AZ,US,Generated
85100,US-AZ,US,Generated
85200,US-AZ,US,Generated
85300,US-AZ,US,Generated
85400,US,US,Generated
85500,US-AZ,US,Generated
85600,US-AZ,US,Generated
85700,US-AZ,US,Generated
85800,US,US,Generated
85900,US-AZ,US,Generated
86000,US-AZ,US,Generated
86100,US,US,Generated
86200,US,US,Generated
86300,US-AZ,US,Generated
86400,US-AZ,US,Generated
86500,US-AZ,US,Generated
86600,US,US,Generated
86700,US,US,Generated
86800,US,US,Generated
86900,US,US,Generated
87000,US-NM,US,Generated
87100,US-NM,US,Generated
87200,US-NM,US,Generated
87300,US-NM,US,Generated
87400,US-NM,US,Generated
87500,US-NM,US,Generated
87600,US,US,Generated
87700,US-NM,US,Generated
87800,US-NM,US,Generated
87900,US-NM,US,Generated
88000,US-NM,US,Generated
88100,US-NM,US,Generated
88200,US-NM,US,Generated
88300,US-NM,US,Generated
88400,US-NM,US,Generated
88500,US-TX,US,Generated
88600,US,US,Generated
88700,US,US,Generated
88800,US,US,Generated
88900,US-NV,US,Generated
89000,US-NV,US,Generated
89100,US-NV,US,Generated
89200,US,US,Generated
89300,US-NV,US,Generated
89400,US-NV,US,Generated
89500,US-NV,US,Generated
89600,US-NV,US,Generated
89700,US-NV,US,Generated
89800,US-NV,US,Generated
89900,US,US,Generated
90000,US-CA,US,Generated
90100,US-CA,US,Generated
90200,US-CA,US,Generated
90300,US-CA,US,Generated
90400,US-CA,US,Generated
90500,US-CA,US,Generated
90600,US-CA,US,Generated
90700,US-CA,US,Generated
90800,US-CA,US,Generated
90900,US,US,Generated
91000,US-CA,US,Generated
91100,US-CA,US,Generated
91200,US-CA,US,Generated
91300,US-CA,US,Generated
91400,US-CA,US,Generated
91500,US-CA,US,Generated
91600,US-CA,US,Generated
91700,US-CA,US,Generated
91800,US-CA,US,Generated
91900,US-CA,US,Generated
92000,US-CA,US,Generated
92100,US-CA,US,Generated
92200,US-CA,US,Generated
92300,US-CA,US,Generated
92400,US-CA,US,Generated
92500,US-CA,US,Generated
92600,US-CA,US,Generated
92700,US-CA,US,Generated
92800,US-CA,US,Generated
92900,US,US,Generated
93000,US-CA,US,Generated
93100,US-CA,US,Generated
93200,US-CA,US,Generated
93300,US-CA,US,Generated
93400,US-CA,US,Generated
93500,US-CA,US,Generated
93600,US-CA,US,Generated
93700,US-CA,US,Generated
93800,US-CA,US,Generated
93900,US-CA,US,Generated
94000,US-CA,US,Generated
94100,US-CA,US,Generated
94200,US-CA,US,Generated
94300,US-CA,US,Generated
94400,US-CA,US,Generated
94500,US-CA,US,Generated
94600,US-CA,US,Generated
94700,US-CA,US,Generated
94800,US-CA,US,Generated
94900,US-CA,US,Generated
95000,US-CA,US,Generated
95100,US-CA,US,Generated
95200,US-CA,US,Generated
95300,US-CA,US,Generated
95400,US-CA,US,Generated
95500,US-CA,US,Generated
95600,US-CA,US,Generated
95700,US-CA,US,Generated
95800,US-CA,US,Generated
95900,US-CA,US,Generated
96000,US-CA,US,Generated
96100,US-CA,US,Generated
96200,US-AP,US,Generated
96300,US-AP,US,Generated
96400,US-AP,US,Generated
96500,US-AP,US,Generated
96600,US-AP,US,Generated
96700,US-HI,US,Generated
96800,US-HI,US,Generated
96900,US-GU,US,Generated
97000,US-OR,US,Generated
97100,US-OR,US,Generated
97200,US-OR,US,Generated
97300,US-OR,US,Generated
97400,US-OR,US,Generated
97500,US-OR,US,Generated
97600,US-OR,US,Generated
97700,US-OR,US,Generated
97800,US-OR,US,Generated
97900,US-OR,US,Generated
98000,US-WA,US,Generated
98100,US-WA,US,Generated
98200,US-WA,US,Generated
98300,US-WA,US,Generated
98400,US-WA,US,Generated
98500,US-WA,US,Generated
98600,US-WA,US,Generated
98700,US,US,Generated
98800,US-WA,US,Generated
98900,US-WA,US,Generated
99000,US-WA,US,Generated
99100,US-WA,US,Generated
99200,US-WA,US,Generated
99300,US-WA,US,Generated
99400,US-WA,US,Generated
99500,US-AK,US,Generated
99600,US-AK,US,Generated
99700,US-AK,US,Generated
99800,US-AK,US,Generated
